"","att","mean","median","skewness","IQR","outliers","missing"
"1","AT",17.71,17.8,-0.04,11.88,27,0
"2","AP",1013.07,1012.6,0.19,8.2,216,0
"3","AH",77.87,80.47,-0.63,21.19,75,0
"4","AFDP",3.93,3.94,0.38,1.02,132,0
"5","GTEP",25.56,25.1,0.33,5.93,6,0
"6","TIT",1081.43,1085.9,-0.89,25.2,154,0
"7","TAT",546.16,549.88,-1.76,5.32,428,0
"8","TEY",133.51,133.73,0.12,19.63,0,0
"9","CDP",12.06,11.96,0.24,1.42,0,0
"10","CO",2.37,1.71,4.84,1.66,644,0
"11","NOX",65.29,63.85,1.03,14.39,546,0
